<svg width="25" height="32" viewBox="0 0 25 32" fill="none" xmlns="http://www.w3.org/2000/svg">
<path fill-rule="evenodd" clip-rule="evenodd" d="M0.12793 2C0.12793 0.895416 1.02336 0 2.12793 0H16.1279L24.1279 8V30C24.1279 31.1046 23.2325 32 22.1279 32H2.12793C1.02336 32 0.12793 31.1046 0.12793 30V2ZM14.1279 2L22.1279 10H14.1279V2ZM20.1279 21C20.1279 21.3612 20.1006 21.716 20.0478 22.0624H12.0197L7.39542 14.0031C7.42586 14.001 7.45656 14 7.4875 14H13.1279C16.9939 14 20.1279 17.134 20.1279 21ZM6.12793 16.5823V22.0624H9.27231L6.12793 16.5823ZM6.12793 26.6404V24.4454H10.6396L12.6791 28H7.4875C6.73663 28 6.12793 27.3913 6.12793 26.6404ZM13.387 24.4454L15.2404 27.6756C16.9399 27.1383 18.3591 25.9699 19.2227 24.4454H13.387Z" fill="#1F8197"/>
</svg>
