<svg width="451" height="341" viewBox="0 0 451 341" fill="none" xmlns="http://www.w3.org/2000/svg">
<path d="M127.827 112.891V36.1574L171.855 112.891H127.827Z" fill="white"/>
<path d="M127.827 146.258V176.993C127.827 187.507 136.35 196.03 146.864 196.03H219.558L191 146.258H127.827Z" fill="white"/>
<path d="M229.469 146.258L255.42 191.488C279.218 183.964 299.089 167.604 311.182 146.258H229.469Z" fill="white"/>
<path d="M322.735 112.891C323.474 108.04 323.857 103.072 323.857 98.015C323.857 43.8828 279.974 0 225.842 0H146.864C146.43 0 146.001 0.0144811 145.574 0.0429857L210.324 112.891H322.735Z" fill="white"/>
<path d="M0 339.659L34.1512 253.975H47.5462L81.5767 339.659H64.0787L37.7715 269.332H43.8052L17.1359 339.659H0ZM18.1013 323.693V309.798H63.7167V323.693H18.1013Z" fill="white"/>
<path d="M107.865 341C104.567 341 101.308 340.553 98.0904 339.659C94.9528 338.765 92.0566 337.547 89.4017 336.003C86.7469 334.378 84.454 332.428 82.5232 330.152L91.9359 320.524C93.9472 322.799 96.2802 324.505 98.9351 325.643C101.59 326.78 104.526 327.349 107.744 327.349C110.319 327.349 112.25 326.983 113.537 326.252C114.905 325.521 115.588 324.424 115.588 322.961C115.588 321.336 114.864 320.077 113.416 319.183C112.049 318.289 110.238 317.558 107.986 316.989C105.733 316.339 103.36 315.648 100.866 314.917C98.4524 314.104 96.1193 313.089 93.8667 311.87C91.6141 310.57 89.7638 308.823 88.3157 306.629C86.948 304.354 86.2642 301.428 86.2642 297.853C86.2642 294.115 87.1491 290.865 88.919 288.102C90.7694 285.34 93.384 283.187 96.7629 281.643C100.142 280.099 104.124 279.327 108.71 279.327C113.537 279.327 117.881 280.18 121.743 281.886C125.685 283.593 128.943 286.152 131.518 289.565L121.984 299.194C120.214 297 118.203 295.416 115.95 294.44C113.778 293.465 111.405 292.978 108.831 292.978C106.497 292.978 104.687 293.343 103.4 294.075C102.193 294.806 101.59 295.822 101.59 297.122C101.59 298.584 102.274 299.722 103.641 300.535C105.09 301.347 106.94 302.078 109.193 302.729C111.445 303.297 113.778 303.988 116.192 304.801C118.686 305.532 121.019 306.588 123.191 307.97C125.444 309.351 127.254 311.179 128.621 313.454C130.069 315.729 130.793 318.655 130.793 322.23C130.793 327.999 128.742 332.59 124.639 336.003C120.536 339.334 114.945 341 107.865 341Z" fill="white"/>
<path d="M165.951 340.878C159.997 340.878 154.647 339.537 149.901 336.856C145.154 334.175 141.413 330.518 138.678 325.886C135.943 321.255 134.575 316.054 134.575 310.285C134.575 304.435 135.943 299.194 138.678 294.562C141.413 289.931 145.154 286.274 149.901 283.593C154.728 280.83 160.078 279.449 165.951 279.449C170.536 279.449 174.76 280.302 178.622 282.008C182.483 283.715 185.822 286.152 188.638 289.321L178.501 299.681C176.972 297.975 175.122 296.675 172.95 295.781C170.858 294.887 168.525 294.44 165.951 294.44C163.054 294.44 160.44 295.131 158.107 296.512C155.854 297.813 154.044 299.641 152.676 301.997C151.389 304.272 150.745 306.994 150.745 310.163C150.745 313.251 151.389 316.014 152.676 318.452C154.044 320.808 155.854 322.677 158.107 324.058C160.44 325.358 163.054 326.008 165.951 326.008C168.605 326.008 170.979 325.561 173.07 324.668C175.243 323.693 177.093 322.311 178.622 320.524L188.879 330.884C185.902 334.134 182.483 336.612 178.622 338.319C174.76 340.025 170.536 340.878 165.951 340.878Z" fill="white"/>
<path d="M194.815 339.659V280.789H210.744V339.659H194.815ZM202.779 271.283C200.205 271.283 198.073 270.429 196.383 268.723C194.694 266.935 193.849 264.741 193.849 262.141C193.849 259.622 194.694 257.469 196.383 255.681C198.073 253.894 200.205 253 202.779 253C205.434 253 207.566 253.894 209.175 255.681C210.865 257.469 211.709 259.622 211.709 262.141C211.709 264.741 210.865 266.935 209.175 268.723C207.566 270.429 205.434 271.283 202.779 271.283Z" fill="white"/>
<path d="M221.731 339.659V280.789H237.66V339.659H221.731ZM229.696 271.283C227.121 271.283 224.989 270.429 223.3 268.723C221.61 266.935 220.766 264.741 220.766 262.141C220.766 259.622 221.61 257.469 223.3 255.681C224.989 253.894 227.121 253 229.696 253C232.35 253 234.482 253.894 236.091 255.681C237.781 257.469 238.626 259.622 238.626 262.141C238.626 264.741 237.781 266.935 236.091 268.723C234.482 270.429 232.35 271.283 229.696 271.283Z" fill="white"/>
<path d="M260.646 339.659V324.911H282.246C287.717 324.911 292.504 323.774 296.607 321.499C300.71 319.142 303.888 315.851 306.14 311.626C308.473 307.401 309.64 302.404 309.64 296.634C309.64 291.028 308.473 286.152 306.14 282.008C303.807 277.783 300.589 274.533 296.486 272.258C292.383 269.901 287.637 268.723 282.246 268.723H260.283V253.975H282.488C288.763 253.975 294.555 255.031 299.865 257.144C305.255 259.257 309.921 262.263 313.863 266.163C317.886 269.982 320.983 274.492 323.155 279.693C325.408 284.893 326.534 290.581 326.534 296.756C326.534 302.932 325.408 308.66 323.155 313.942C320.983 319.142 317.926 323.693 313.984 327.593C310.042 331.412 305.376 334.378 299.986 336.49C294.676 338.603 288.924 339.659 282.729 339.659H260.646ZM249.423 339.659V253.975H265.835V339.659H249.423Z" fill="white"/>
<path d="M361.349 340.878C355.476 340.878 350.166 339.537 345.42 336.856C340.753 334.093 337.013 330.396 334.197 325.765C331.461 321.052 330.094 315.811 330.094 310.042C330.094 304.272 331.461 299.113 334.197 294.562C336.932 289.931 340.673 286.274 345.42 283.593C350.166 280.83 355.436 279.449 361.228 279.449C367.181 279.449 372.491 280.83 377.157 283.593C381.904 286.274 385.645 289.931 388.38 294.562C391.115 299.113 392.483 304.272 392.483 310.042C392.483 315.811 391.115 321.052 388.38 325.765C385.645 330.396 381.904 334.093 377.157 336.856C372.491 339.537 367.222 340.878 361.349 340.878ZM361.228 326.008C364.205 326.008 366.819 325.358 369.072 324.058C371.405 322.677 373.175 320.808 374.382 318.452C375.669 316.014 376.313 313.251 376.313 310.163C376.313 307.076 375.669 304.354 374.382 301.997C373.095 299.641 371.325 297.813 369.072 296.512C366.819 295.131 364.205 294.44 361.228 294.44C358.332 294.44 355.757 295.131 353.505 296.512C351.252 297.813 349.482 299.641 348.195 301.997C346.908 304.354 346.264 307.076 346.264 310.163C346.264 313.251 346.908 316.014 348.195 318.452C349.482 320.808 351.252 322.677 353.505 324.058C355.757 325.358 358.332 326.008 361.228 326.008Z" fill="white"/>
<path d="M428.072 340.878C422.118 340.878 416.768 339.537 412.022 336.856C407.275 334.175 403.534 330.518 400.799 325.886C398.064 321.255 396.696 316.054 396.696 310.285C396.696 304.435 398.064 299.194 400.799 294.562C403.534 289.931 407.275 286.274 412.022 283.593C416.849 280.83 422.199 279.449 428.072 279.449C432.657 279.449 436.881 280.302 440.742 282.008C444.604 283.715 447.943 286.152 450.759 289.321L440.622 299.681C439.093 297.975 437.243 296.675 435.071 295.781C432.979 294.887 430.646 294.44 428.072 294.44C425.175 294.44 422.561 295.131 420.228 296.512C417.975 297.813 416.165 299.641 414.797 301.997C413.51 304.272 412.866 306.994 412.866 310.163C412.866 313.251 413.51 316.014 414.797 318.452C416.165 320.808 417.975 322.677 420.228 324.058C422.561 325.358 425.175 326.008 428.072 326.008C430.726 326.008 433.1 325.561 435.191 324.668C437.364 323.693 439.214 322.311 440.742 320.524L451 330.884C448.023 334.134 444.604 336.612 440.742 338.319C436.881 340.025 432.657 340.878 428.072 340.878Z" fill="white"/>
</svg>
