<svg width="717" height="156" viewBox="0 0 717 156" fill="none" xmlns="http://www.w3.org/2000/svg">
<path d="M14.2872 0.534503L65.4939 89.7799H154.394C154.978 85.9435 155.281 82.0147 155.281 78.0151C155.281 35.205 120.577 0.500488 77.7665 0.500488H15.3073C14.9644 0.500488 14.6243 0.511947 14.2872 0.534503Z" fill="#1F8197"/>
<path d="M0.251953 29.0959L35.0709 89.7799H0.251953V29.0959Z" fill="#1F8197"/>
<path d="M0.251953 116.168V140.474C0.251953 148.789 6.99244 155.53 15.3073 155.53H72.7964L50.2116 116.168H0.251953Z" fill="#1F8197"/>
<path d="M101.158 151.938C119.979 145.988 135.693 133.049 145.257 116.168H80.6346L101.158 151.938Z" fill="#1F8197"/>
<path d="M194.252 94.3677L231.614 1.55666H246.268L283.498 94.3677H264.355L235.575 18.1914H242.176L212.999 94.3677H194.252ZM214.055 77.0729V62.0224H263.959V77.0729H214.055Z" fill="#404040"/>
<path d="M312.258 95.8199C308.65 95.8199 305.085 95.3358 301.565 94.3677C298.132 93.3995 294.964 92.0793 292.059 90.407C289.155 88.6468 286.646 86.5344 284.534 84.07L294.832 73.6403C297.032 76.1047 299.584 77.953 302.489 79.1852C305.393 80.4174 308.606 81.0335 312.126 81.0335C314.943 81.0335 317.055 80.6375 318.463 79.8453C319.96 79.0532 320.708 77.865 320.708 76.2808C320.708 74.5205 319.916 73.1563 318.331 72.1881C316.835 71.2199 314.855 70.4278 312.39 69.8117C309.926 69.1076 307.33 68.3595 304.601 67.5673C301.961 66.6872 299.408 65.587 296.944 64.2668C294.48 62.8586 292.455 60.9663 290.871 58.5899C289.375 56.1255 288.627 52.957 288.627 49.0844C288.627 45.0357 289.595 41.5151 291.531 38.5226C293.555 35.5302 296.416 33.1978 300.112 31.5255C303.809 29.8532 308.166 29.0171 313.183 29.0171C318.463 29.0171 323.216 29.9413 327.441 31.7896C331.754 33.6379 335.318 36.4103 338.135 40.1069L327.705 50.5366C325.769 48.1602 323.568 46.4439 321.104 45.3878C318.727 44.3316 316.131 43.8035 313.315 43.8035C310.762 43.8035 308.782 44.1996 307.374 44.9917C306.053 45.7838 305.393 46.884 305.393 48.2922C305.393 49.8765 306.141 51.1087 307.638 51.9888C309.222 52.869 311.246 53.6611 313.711 54.3652C316.175 54.9813 318.727 55.7294 321.368 56.6096C324.096 57.4017 326.649 58.5459 329.025 60.0421C331.49 61.5384 333.47 63.5187 334.966 65.9831C336.55 68.4475 337.342 71.616 337.342 75.4886C337.342 81.7376 335.098 86.7104 330.609 90.407C326.121 94.0156 320.004 95.8199 312.258 95.8199Z" fill="#404040"/>
<path d="M375.805 95.6879C369.292 95.6879 363.439 94.2357 358.246 91.3312C353.053 88.4267 348.961 84.4661 345.968 79.4493C342.976 74.4325 341.479 68.7995 341.479 62.5505C341.479 56.2135 342.976 50.5366 345.968 45.5198C348.961 40.503 353.053 36.5423 358.246 33.6379C363.527 30.6454 369.38 29.1491 375.805 29.1491C380.822 29.1491 385.443 30.0733 389.667 31.9216C393.892 33.7699 397.545 36.4103 400.625 39.8429L389.535 51.0647C387.863 49.2164 385.839 47.8081 383.462 46.84C381.174 45.8718 378.622 45.3878 375.805 45.3878C372.637 45.3878 369.776 46.1359 367.224 47.6321C364.759 49.0403 362.779 51.0207 361.283 53.5731C359.874 56.0375 359.17 58.986 359.17 62.4185C359.17 65.763 359.874 68.7555 361.283 71.396C362.779 73.9484 364.759 75.9727 367.224 77.4689C369.776 78.8772 372.637 79.5813 375.805 79.5813C378.71 79.5813 381.306 79.0972 383.594 78.1291C385.971 77.0729 387.995 75.5766 389.667 73.6403L400.889 84.8621C397.633 88.3827 393.892 91.0672 389.667 92.9155C385.443 94.7638 380.822 95.6879 375.805 95.6879Z" fill="#404040"/>
<path d="M407.383 94.3677V30.6014H424.81V94.3677H407.383ZM416.096 20.3037C413.28 20.3037 410.947 19.3795 409.099 17.5312C407.251 15.5949 406.327 13.2185 406.327 10.4021C406.327 7.67365 407.251 5.34127 409.099 3.40496C410.947 1.46865 413.28 0.500488 416.096 0.500488C419.001 0.500488 421.333 1.46865 423.093 3.40496C424.942 5.34127 425.866 7.67365 425.866 10.4021C425.866 13.2185 424.942 15.5949 423.093 17.5312C421.333 19.3795 419.001 20.3037 416.096 20.3037Z" fill="#404040"/>
<path d="M436.83 94.3677V30.6014H454.257V94.3677H436.83ZM445.543 20.3037C442.727 20.3037 440.394 19.3795 438.546 17.5312C436.698 15.5949 435.774 13.2185 435.774 10.4021C435.774 7.67365 436.698 5.34127 438.546 3.40496C440.394 1.46865 442.727 0.500488 445.543 0.500488C448.448 0.500488 450.78 1.46865 452.54 3.40496C454.389 5.34127 455.313 7.67365 455.313 10.4021C455.313 13.2185 454.389 15.5949 452.54 17.5312C450.78 19.3795 448.448 20.3037 445.543 20.3037Z" fill="#404040"/>
<path d="M479.403 94.3677V78.3931H503.035C509.02 78.3931 514.257 77.1609 518.745 74.6965C523.234 72.1441 526.711 68.5795 529.175 64.0028C531.728 59.426 533.004 54.0132 533.004 47.7641C533.004 41.6912 531.728 36.4103 529.175 31.9216C526.623 27.3448 523.102 23.8243 518.613 21.3599C514.125 18.8075 508.932 17.5312 503.035 17.5312H479.007V1.55666H503.299C510.164 1.55666 516.501 2.70085 522.31 4.98921C528.207 7.27758 533.312 10.5341 537.625 14.7588C542.025 18.8955 545.414 23.7803 547.79 29.4132C550.255 35.0461 551.487 41.2071 551.487 47.8962C551.487 54.5852 550.255 60.7902 547.79 66.5112C545.414 72.1441 542.069 77.0729 537.757 81.2976C533.444 85.4342 528.339 88.6468 522.442 90.9351C516.633 93.2235 510.34 94.3677 503.563 94.3677H479.403ZM467.125 94.3677V1.55666H485.08V94.3677H467.125Z" fill="#404040"/>
<path d="M589.574 95.6879C583.149 95.6879 577.34 94.2357 572.148 91.3312C567.043 88.3387 562.95 84.3341 559.87 79.3172C556.877 74.2124 555.381 68.5355 555.381 62.2865C555.381 56.0375 556.877 50.4486 559.87 45.5198C562.862 40.503 566.955 36.5423 572.148 33.6379C577.34 30.6454 583.105 29.1491 589.442 29.1491C595.955 29.1491 601.764 30.6454 606.869 33.6379C612.062 36.5423 616.155 40.503 619.147 45.5198C622.14 50.4486 623.636 56.0375 623.636 62.2865C623.636 68.5355 622.14 74.2124 619.147 79.3172C616.155 84.3341 612.062 88.3387 606.869 91.3312C601.764 94.2357 595.999 95.6879 589.574 95.6879ZM589.442 79.5813C592.699 79.5813 595.559 78.8772 598.024 77.4689C600.576 75.9727 602.512 73.9484 603.833 71.396C605.241 68.7555 605.945 65.763 605.945 62.4185C605.945 59.074 605.241 56.1255 603.833 53.5731C602.424 51.0207 600.488 49.0403 598.024 47.6321C595.559 46.1359 592.699 45.3878 589.442 45.3878C586.274 45.3878 583.457 46.1359 580.993 47.6321C578.529 49.0403 576.592 51.0207 575.184 53.5731C573.776 56.1255 573.072 59.074 573.072 62.4185C573.072 65.763 573.776 68.7555 575.184 71.396C576.592 73.9484 578.529 75.9727 580.993 77.4689C583.457 78.8772 586.274 79.5813 589.442 79.5813Z" fill="#404040"/>
<path d="M662.57 95.6879C656.057 95.6879 650.204 94.2357 645.012 91.3312C639.819 88.4267 635.726 84.4661 632.734 79.4493C629.741 74.4325 628.245 68.7995 628.245 62.5505C628.245 56.2135 629.741 50.5366 632.734 45.5198C635.726 40.503 639.819 36.5423 645.012 33.6379C650.292 30.6454 656.145 29.1491 662.57 29.1491C667.587 29.1491 672.208 30.0733 676.433 31.9216C680.657 33.7699 684.31 36.4103 687.39 39.8429L676.301 51.0647C674.628 49.2164 672.604 47.8081 670.228 46.84C667.939 45.8718 665.387 45.3878 662.57 45.3878C659.402 45.3878 656.541 46.1359 653.989 47.6321C651.525 49.0403 649.544 51.0207 648.048 53.5731C646.64 56.0375 645.936 58.986 645.936 62.4185C645.936 65.763 646.64 68.7555 648.048 71.396C649.544 73.9484 651.525 75.9727 653.989 77.4689C656.541 78.8772 659.402 79.5813 662.57 79.5813C665.475 79.5813 668.071 79.0972 670.36 78.1291C672.736 77.0729 674.76 75.5766 676.433 73.6403L687.654 84.8621C684.398 88.3827 680.657 91.0672 676.433 92.9155C672.208 94.7638 667.587 95.6879 662.57 95.6879Z" fill="#404040"/>
<path d="M202.954 148.5L196.152 121.9H200.237L205.215 141.413L210.174 121.9H213.765L218.743 141.413L223.702 121.9H227.787L221.023 148.5H216.482L211.96 130.887L207.495 148.5H202.954ZM258.177 148.994C256.378 148.994 254.687 148.64 253.104 147.93C251.52 147.208 250.127 146.214 248.924 144.947C247.72 143.681 246.777 142.218 246.093 140.558C245.409 138.886 245.067 137.1 245.067 135.2C245.067 133.3 245.409 131.521 246.093 129.861C246.777 128.189 247.72 126.72 248.924 125.453C250.127 124.187 251.52 123.199 253.104 122.489C254.687 121.767 256.378 121.406 258.177 121.406C259.988 121.406 261.685 121.767 263.269 122.489C264.852 123.199 266.245 124.187 267.449 125.453C268.652 126.72 269.589 128.189 270.261 129.861C270.945 131.521 271.287 133.3 271.287 135.2C271.287 137.1 270.945 138.886 270.261 140.558C269.589 142.218 268.652 143.681 267.449 144.947C266.245 146.214 264.852 147.208 263.269 147.93C261.685 148.64 259.988 148.994 258.177 148.994ZM258.177 145.042C259.443 145.042 260.628 144.783 261.73 144.263C262.832 143.744 263.801 143.035 264.637 142.135C265.485 141.223 266.144 140.178 266.613 139C267.094 137.81 267.335 136.543 267.335 135.2C267.335 133.858 267.094 132.591 266.613 131.4C266.144 130.21 265.485 129.165 264.637 128.265C263.801 127.353 262.832 126.644 261.73 126.137C260.628 125.618 259.443 125.358 258.177 125.358C256.91 125.358 255.726 125.618 254.624 126.137C253.522 126.657 252.546 127.372 251.698 128.284C250.862 129.184 250.203 130.229 249.722 131.419C249.253 132.597 249.019 133.858 249.019 135.2C249.019 136.556 249.253 137.829 249.722 139.019C250.203 140.197 250.862 141.242 251.698 142.154C252.546 143.054 253.522 143.763 254.624 144.282C255.726 144.789 256.91 145.042 258.177 145.042ZM290.636 148.5V121.9H300.421C301.853 121.9 303.145 122.255 304.297 122.964C305.463 123.674 306.381 124.63 307.052 125.833C307.736 127.024 308.078 128.354 308.078 129.823C308.078 131.065 307.844 132.198 307.375 133.224C306.907 134.25 306.261 135.124 305.437 135.846C304.614 136.568 303.664 137.088 302.587 137.404L309.009 148.5H304.449L298.217 137.765H294.569V148.5H290.636ZM294.569 133.813H300.003C300.751 133.813 301.435 133.623 302.055 133.243C302.689 132.863 303.189 132.357 303.556 131.723C303.936 131.09 304.126 130.374 304.126 129.576C304.126 128.778 303.936 128.063 303.556 127.429C303.189 126.783 302.689 126.277 302.055 125.909C301.435 125.529 300.751 125.339 300.003 125.339H294.569V133.813ZM346.448 148.5H341.318L333.395 137.537L331.78 139.494V148.5H327.828V121.9H331.78V133.357L341.356 121.9H346.524L335.998 134.459L346.448 148.5ZM364.964 148.5V121.9H368.916V148.5H364.964ZM389.462 148.5V121.9H393.737L405.935 141.356V121.9H409.887V148.5H405.631L393.395 129.044V148.5H389.462ZM441.462 148.994C439.612 148.994 437.89 148.64 436.294 147.93C434.71 147.208 433.323 146.214 432.133 144.947C430.955 143.668 430.03 142.192 429.359 140.52C428.7 138.848 428.371 137.069 428.371 135.181C428.371 133.193 428.725 131.362 429.435 129.69C430.144 128.018 431.113 126.568 432.342 125.339C433.57 124.098 434.97 123.135 436.541 122.451C438.124 121.767 439.783 121.425 441.519 121.425C443.482 121.425 445.369 121.881 447.181 122.793C448.992 123.705 450.569 125.073 451.912 126.897L448.378 128.816C447.466 127.676 446.402 126.815 445.186 126.232C443.982 125.65 442.747 125.358 441.481 125.358C440.252 125.358 439.087 125.612 437.985 126.118C436.883 126.612 435.907 127.309 435.059 128.208C434.21 129.095 433.539 130.14 433.045 131.343C432.563 132.534 432.323 133.832 432.323 135.238C432.323 136.594 432.557 137.867 433.026 139.057C433.507 140.248 434.166 141.293 435.002 142.192C435.85 143.079 436.826 143.776 437.928 144.282C439.042 144.789 440.233 145.042 441.5 145.042C442.437 145.042 443.336 144.89 444.198 144.586C445.059 144.282 445.857 143.852 446.592 143.294C447.339 142.724 447.991 142.047 448.549 141.261C449.106 140.476 449.549 139.602 449.879 138.639H444.236V135.143H454.515C454.54 137.043 454.211 138.829 453.527 140.501C452.855 142.173 451.918 143.649 450.715 144.928C449.524 146.195 448.137 147.189 446.554 147.911C444.97 148.633 443.273 148.994 441.462 148.994ZM508.656 148.994C506.807 148.994 505.084 148.64 503.488 147.93C501.905 147.208 500.518 146.214 499.327 144.947C498.149 143.668 497.225 142.192 496.553 140.52C495.895 138.848 495.565 137.069 495.565 135.181C495.565 133.193 495.92 131.362 496.629 129.69C497.339 128.018 498.308 126.568 499.536 125.339C500.765 124.098 502.165 123.135 503.735 122.451C505.319 121.767 506.978 121.425 508.713 121.425C510.677 121.425 512.564 121.881 514.375 122.793C516.187 123.705 517.764 125.073 519.106 126.897L515.572 128.816C514.66 127.676 513.596 126.815 512.38 126.232C511.177 125.65 509.942 125.358 508.675 125.358C507.447 125.358 506.281 125.612 505.179 126.118C504.077 126.612 503.102 127.309 502.253 128.208C501.405 129.095 500.733 130.14 500.239 131.343C499.758 132.534 499.517 133.832 499.517 135.238C499.517 136.594 499.752 137.867 500.22 139.057C500.702 140.248 501.36 141.293 502.196 142.192C503.045 143.079 504.02 143.776 505.122 144.282C506.237 144.789 507.428 145.042 508.694 145.042C509.632 145.042 510.531 144.89 511.392 144.586C512.254 144.282 513.052 143.852 513.786 143.294C514.534 142.724 515.186 142.047 515.743 141.261C516.301 140.476 516.744 139.602 517.073 138.639H511.43V135.143H521.709C521.735 137.043 521.405 138.829 520.721 140.501C520.05 142.173 519.113 143.649 517.909 144.928C516.719 146.195 515.332 147.189 513.748 147.911C512.165 148.633 510.468 148.994 508.656 148.994ZM540.699 148.5V121.9H550.484C551.915 121.9 553.207 122.255 554.36 122.964C555.525 123.674 556.443 124.63 557.115 125.833C557.799 127.024 558.141 128.354 558.141 129.823C558.141 131.065 557.906 132.198 557.438 133.224C556.969 134.25 556.323 135.124 555.5 135.846C554.676 136.568 553.726 137.088 552.65 137.404L559.072 148.5H554.512L548.28 137.765H544.632V148.5H540.699ZM544.632 133.813H550.066C550.813 133.813 551.497 133.623 552.118 133.243C552.751 132.863 553.251 132.357 553.619 131.723C553.999 131.09 554.189 130.374 554.189 129.576C554.189 128.778 553.999 128.063 553.619 127.429C553.251 126.783 552.751 126.277 552.118 125.909C551.497 125.529 550.813 125.339 550.066 125.339H544.632V133.813ZM589.312 148.994C587.514 148.994 585.823 148.64 584.239 147.93C582.656 147.208 581.263 146.214 580.059 144.947C578.856 143.681 577.912 142.218 577.228 140.558C576.544 138.886 576.202 137.1 576.202 135.2C576.202 133.3 576.544 131.521 577.228 129.861C577.912 128.189 578.856 126.72 580.059 125.453C581.263 124.187 582.656 123.199 584.239 122.489C585.823 121.767 587.514 121.406 589.312 121.406C591.124 121.406 592.821 121.767 594.404 122.489C595.988 123.199 597.381 124.187 598.584 125.453C599.788 126.72 600.725 128.189 601.396 129.861C602.08 131.521 602.422 133.3 602.422 135.2C602.422 137.1 602.08 138.886 601.396 140.558C600.725 142.218 599.788 143.681 598.584 144.947C597.381 146.214 595.988 147.208 594.404 147.93C592.821 148.64 591.124 148.994 589.312 148.994ZM589.312 145.042C590.579 145.042 591.763 144.783 592.865 144.263C593.967 143.744 594.936 143.035 595.772 142.135C596.621 141.223 597.28 140.178 597.748 139C598.23 137.81 598.47 136.543 598.47 135.2C598.47 133.858 598.23 132.591 597.748 131.4C597.28 130.21 596.621 129.165 595.772 128.265C594.936 127.353 593.967 126.644 592.865 126.137C591.763 125.618 590.579 125.358 589.312 125.358C588.046 125.358 586.861 125.618 585.759 126.137C584.657 126.657 583.682 127.372 582.833 128.284C581.997 129.184 581.339 130.229 580.857 131.419C580.389 132.597 580.154 133.858 580.154 135.2C580.154 136.556 580.389 137.829 580.857 139.019C581.339 140.197 581.997 141.242 582.833 142.154C583.682 143.054 584.657 143.763 585.759 144.282C586.861 144.789 588.046 145.042 589.312 145.042ZM631.551 148.994C629.423 148.994 627.567 148.475 625.984 147.436C624.413 146.398 623.191 145.004 622.317 143.256C621.455 141.496 621.025 139.545 621.025 137.404V121.9H624.977V137.404C624.977 138.798 625.23 140.077 625.737 141.242C626.256 142.395 627.003 143.32 627.979 144.016C628.967 144.7 630.157 145.042 631.551 145.042C632.982 145.042 634.185 144.7 635.161 144.016C636.136 143.32 636.871 142.395 637.365 141.242C637.871 140.077 638.125 138.798 638.125 137.404V121.9H642.077V137.404C642.077 139.013 641.83 140.52 641.336 141.926C640.842 143.32 640.132 144.548 639.208 145.612C638.283 146.676 637.175 147.506 635.883 148.101C634.591 148.697 633.147 148.994 631.551 148.994ZM661.45 148.5V121.9H670.608C672.039 121.9 673.331 122.255 674.484 122.964C675.649 123.674 676.574 124.63 677.258 125.833C677.955 127.037 678.303 128.367 678.303 129.823C678.303 131.305 677.948 132.648 677.239 133.851C676.542 135.042 675.611 135.992 674.446 136.701C673.281 137.411 672.001 137.765 670.608 137.765H665.402V148.5H661.45ZM665.402 133.813H670.209C670.969 133.813 671.659 133.623 672.28 133.243C672.913 132.863 673.414 132.357 673.781 131.723C674.161 131.09 674.351 130.374 674.351 129.576C674.351 128.778 674.161 128.063 673.781 127.429C673.414 126.783 672.913 126.277 672.28 125.909C671.659 125.529 670.969 125.339 670.209 125.339H665.402V133.813Z" fill="#404040"/>
<path d="M696.702 10.3181C696.702 7.71434 697.738 5.21717 699.583 3.376C701.429 1.53483 703.931 0.500488 706.541 0.500488C709.15 0.500488 711.653 1.53483 713.498 3.376C715.343 5.21717 716.379 7.71434 716.379 10.3181V10.3181C716.379 12.9219 715.343 15.4191 713.498 17.2603C711.653 19.1014 709.15 20.1358 706.541 20.1358C703.931 20.1358 701.429 19.1014 699.583 17.2603C697.738 15.4191 696.702 12.9219 696.702 10.3181ZM715.241 10.3181C715.241 8.01565 714.324 5.80746 712.693 4.17936C711.061 2.55125 708.848 1.63659 706.541 1.63659C704.233 1.63659 702.02 2.55125 700.388 4.17936C698.757 5.80746 697.84 8.01565 697.84 10.3181V10.3181C697.817 11.4676 698.026 12.6099 698.454 13.6772C698.882 14.7445 699.521 15.715 700.333 16.5309C701.145 17.3468 702.112 17.9915 703.179 18.4267C704.245 18.8619 705.388 19.0786 706.541 19.064C707.7 19.0697 708.848 18.8454 709.92 18.4042C710.991 17.9629 711.964 17.3135 712.781 16.4937C713.599 15.6739 714.245 14.7 714.682 13.6288C715.119 12.5576 715.338 11.4103 715.327 10.2538L715.241 10.3181ZM702.48 5.02347H707.443C709.827 5.02347 711.567 6.09525 711.567 8.41033C711.601 9.12681 711.386 9.83291 710.96 10.4104C710.534 10.9879 709.921 11.4018 709.226 11.5828L711.739 15.1626H708.753L706.605 11.9473H705.015V15.1626H702.545L702.48 5.02347ZM707.099 9.97516C708.238 9.97516 708.861 9.41782 708.861 8.58182C708.861 7.74582 708.173 7.16706 707.099 7.16706H704.951V9.97516H707.099Z" fill="#404040"/>
</svg>
